{
  "users": [
    {
      "id": 1,
      "name": "John",
      "last_name": "Doe",
      "email": "john.doe@example.com",
      "card_number": "4111111111111111",
      "pin_code": "1234",
      "balance": 500.0
    },
    {
      "id": 2,
      "name": "Jane",
      "last_name": "Smith",
      "email": "jane.smith@example.com",
      "card_number": "5105105105105100",
      "pin_code": "5678",
      "balance": 750.0
    },
    {
      "id": 3,
      "name": "Alice",
      "last_name": "Johnson",
      "email": "alice.johnson@example.com",
      "card_number": "6011111111111117",
      "pin_code": "9876",
      "balance": 600.0
    },
    {
      "id": 4,
      "name": "Bob",
      "last_name": "Miller",
      "email": "bob.miller@example.com",
      "card_number": "3530111333300000",
      "pin_code": "4321",
      "balance": 800.0
    },
    {
      "id": 5,
      "name": "Eva",
      "last_name": "Brown",
      "email": "eva.brown@example.com",
      "card_number": "4012888888881881",
      "pin_code": "1111",
      "balance": 700.0
    }
  ],
  "products": [
    {
      "id": 1,
      "name": "Laptop",
      "slug": "laptop",
      "description": "High-performance laptop",
      "price": 1200.0,
      "quantity": 20,
      "owners": {},
      "deleteded_quantity": 0
    },
    {
      "id": 2,
      "name": "Smartphone",
      "slug": "smartphone",
      "description": "Latest smartphone model",
      "price": 800.0,
      "quantity": 30,
      "owners": {},
      "deleteded_quantity": 0
    },
    {
      "id": 3,
      "name": "Camera",
      "slug": "camera",
      "description": "Professional camera",
      "price": 600.0,
      "quantity": 15,
      "owners": {},
      "deleteded_quantity": 0
    },
    {
      "id": 4,
      "name": "Headphones",
      "slug": "headphones",
      "description": "Noise-canceling headphones",
      "price": 150.0,
      "quantity": 50,
      "owners": {},
      "deleteded_quantity": 0
    },
    {
      "id": 5,
      "name": "Tablet",
      "slug": "tablet",
      "description": "High-resolution tablet",
      "price": 500.0,
      "quantity": 25,
      "owners": {},
      "deleteded_quantity": 0
    }
  ]
}
